…
# create empty database with automatically populated Site and Lake tables
# path = ":memory:" creates a temporory, in memory database
conn <- nrp_create_db(path = ":memory:", ask = FALSE) 

# provide a path to a .cnv file
path <-  system.file("extdata", "ctd/2018/KL1_27Aug2018008downcast.cnv",
                       package = "nrp", mustWork = TRUE)

# read in file
# function looks at the database site table to assign SiteID for each file
data <- nrp_read_ctd_file(path, db_path = conn)
#> 132 out of 1445 duplicate depth readings removed from file /Library/Frameworks/R.framework/Versions/3.5/Resources/library/nrp/extdata/ctd/2018/KL1_27Aug2018008downcast.cnv

data
#> # A tibble: 1,313 x 14
#>    SiteID DateTime            Depth Temperature Oxygen Oxygen2 Conductivity
#>    <chr>  <dttm>              <S3:> <S3: units> <S3: > <S3: u> <S3: units> 
#>  1 KL1    2018-08-27 18:05:39 -0.6… 15.6633 [°… 9.573… 96.299… 2.698 [uS/c…
#>  2 KL1    2018-08-27 18:05:39 -0.6… 15.6636 [°… 9.573… 96.303… 2.733 [uS/c…
#>  3 KL1    2018-08-27 18:05:39 -0.6… 15.6642 [°… 9.575… 96.324… 2.733 [uS/c…
#>  4 KL1    2018-08-27 18:05:39 -0.6… 15.6658 [°… 9.574… 96.316… 2.733 [uS/c…
#>  5 KL1    2018-08-27 18:05:39 -0.6… 15.6669 [°… 9.575… 96.325… 2.663 [uS/c…
#>  6 KL1    2018-08-27 18:05:39 -0.6… 15.6668 [°… 9.575… 96.334… 2.838 [uS/c…
#>  7 KL1    2018-08-27 18:05:39 -0.6… 15.6670 [°… 9.572… 96.295… 3.260 [uS/c…
#>  8 KL1    2018-08-27 18:05:39 -0.6… 15.6700 [°… 9.574… 96.324… 5.015 [uS/c…
#>  9 KL1    2018-08-27 18:05:39 -0.6… 15.6798 [°… 9.571… 96.320… 4.909 [uS/c…
#> 10 KL1    2018-08-27 18:05:39 -0.6… 15.6880 [°… 9.569… 96.313… 5.013 [uS/c…
#> # … with 1,303 more rows, and 7 more variables: Conductivity2 <S3: units>,
#> #   Salinity <S3: units>, Backscatter <S3: units>, Fluorescence <S3:
#> #   units>, Frequency <S3: units>, Flag <dbl>, Pressure <S3: units>
…
