Kootenay Lake Nutrient Restoration Program Data Loading • nrp
…
# create empty database with automatically populated Site and Lake tables
# path = ":memory:" creates a temporory, in memory database
conn <- nrp_create_db(path = ":memory:", ask = FALSE) 

# provide a path to a .cnv file
path <-  system.file("extdata", "ctd/2018/KL1_27Aug2018008downcast.cnv",
                       package = "nrp", mustWork = TRUE)

# read in file
# function looks at the database site table to assign SiteID for each file
data <- nrp_read_ctd_file(path, db_path = conn)
#> 32 negative depths removed from data

data
#> # A tibble: 1,413 x 18
#>    FileID SiteID Date       Time  Depth Temperature Oxygen Oxygen2
#>     <int> <chr>  <date>     <tim> <S3:> <S3: units> <S3: > <S3: u>
#>  1      1 KL1    2018-08-27 18:05 0.09… 17.4318 [d… 9.391… 98.081…
#>  2      2 KL1    2018-08-27 18:05 0.19… 17.4351 [d… 9.289… 97.025…
#>  3      3 KL1    2018-08-27 18:05 0.27… 17.4376 [d… 9.121… 95.273…
#>  4      4 KL1    2018-08-27 18:05 0.32… 17.4393 [d… 8.911… 93.077…
#>  5      5 KL1    2018-08-27 18:05 0.33… 17.4379 [d… 8.677… 90.631…
#>  6      6 KL1    2018-08-27 18:05 0.29… 17.4121 [d… 8.443… 88.146…
#>  7      7 KL1    2018-08-27 18:05 0.27… 17.3812 [d… 8.226… 85.822…
#>  8      8 KL1    2018-08-27 18:05 0.26… 17.3667 [d… 8.042… 83.875…
#>  9      9 KL1    2018-08-27 18:05 0.28… 17.3781 [d… 7.905… 82.469…
#> 10     10 KL1    2018-08-27 18:05 0.31… 17.3954 [d… 7.818… 81.588…
#> # … with 1,403 more rows, and 10 more variables: Conductivity <S3: units>,
#> #   Conductivity2 <S3: units>, Salinity <S3: units>, Backscatter <S3:
#> #   units>, Fluorescence <S3: units>, Frequency <S3: units>, Flag <dbl>,
#> #   Pressure <S3: units>, Retain <lgl>, File <chr>

# upload data to the database
nrp_upload_ctd(data = data, db_path = conn)
#> 131 duplicate depths removed from data

# download data from database, filtering by Date and SiteID
db_data <- nrp_download_ctd(start_date = "2018-08-27",
                            end_date = "2018-08-27",
                            sites = "KL1",
                            db_path = conn)
db_data
#> # A tibble: 1,282 x 16
#>    FileID SiteID Date       Time  Depth Temperature Oxygen Oxygen2
#>     <int> <chr>  <date>     <tim> <S3:> <S3: units> <S3: > <S3: u>
#>  1      1 KL1    2018-08-27 18:05 0.09… 17.4318 [d… 9.391… 98.081…
#>  2    194 KL1    2018-08-27 18:05 0.14… 17.4961 [d… 9.408… 98.392…
#>  3    193 KL1    2018-08-27 18:05 0.14… 17.4950 [d… 9.413… 98.439…
#>  4    183 KL1    2018-08-27 18:05 0.16… 17.4941 [d… 9.412… 98.427…
#>  5    273 KL1    2018-08-27 18:05 0.16… 17.4992 [d… 9.446… 98.792…
#>  6    217 KL1    2018-08-27 18:05 0.17… 17.4952 [d… 9.459… 98.917…
#>  7    218 KL1    2018-08-27 18:05 0.17… 17.4959 [d… 9.445… 98.773…
#>  8    205 KL1    2018-08-27 18:05 0.17… 17.4987 [d… 9.373… 98.032…
#>  9    206 KL1    2018-08-27 18:05 0.17… 17.4985 [d… 9.355… 97.837…
#> 10    272 KL1    2018-08-27 18:05 0.18… 17.4999 [d… 9.440… 98.734…
#> # … with 1,272 more rows, and 8 more variables: Conductivity <S3: units>,
#> #   Conductivity2 <S3: units>, Salinity <S3: units>, Backscatter <S3:
#> #   units>, Fluorescence <S3: units>, Frequency <S3: units>, Flag <dbl>,
#> #   Pressure <S3: units>
…
